Cyclistic-Case-Study-Report.knit
…
colnames(rides2021_03)

##  [1] "ride_id"            "rideable_type"      "started_at"        
##  [4] "ended_at"           "start_station_name" "start_station_id"  
##  [7] "end_station_name"   "end_station_id"     "start_lat"         
## [10] "start_lng"          "end_lat"            "end_lng"           
## [13] "member_casual"

- All columns have same names.

Getting an overview of the data

tibble(rides2020_04)

## # A tibble: 84,776 x 13
##    ride_id          rideable_type started_at          ended_at           
##    <chr>            <chr>         <dttm>              <dttm>             
##  1 A847FADBBC638E45 docked_bike   2020-04-26 17:45:14 2020-04-26 18:12:03
##  2 5405B80E996FF60D docked_bike   2020-04-17 17:08:54 2020-04-17 17:17:03
##  3 5DD24A79A4E006F4 docked_bike   2020-04-01 17:54:13 2020-04-01 18:08:36
##  4 2A59BBDF5CDBA725 docked_bike   2020-04-07 12:50:19 2020-04-07 13:02:31
##  5 27AD306C119C6158 docked_bike   2020-04-18 10:22:59 2020-04-18 11:15:54
##  6 356216E875132F61 docked_bike   2020-04-30 17:55:47 2020-04-30 18:01:11
##  7 A2759CB06A81F2BC docked_bike   2020-04-02 14:47:19 2020-04-02 14:52:32
##  8 FC8BC2E2D54F35ED docked_bike   2020-04-07 12:22:20 2020-04-07 13:38:09
##  9 9EC5648678DE06E6 docked_bike   2020-04-15 10:30:11 2020-04-15 10:35:55
## 10 A8FFF89140C33017 docked_bike   2020-04-04 15:02:28 2020-04-04 15:19:47
## # ... with 84,766 more rows, and 9 more variables: start_station_name <chr>,
## #   start_station_id <dbl>, end_station_name <chr>, end_station_id <dbl>,
## #   start_lat <dbl>, start_lng <dbl>, end_lat <dbl>, end_lng <dbl>,
## #   member_casual <chr>

tibble(rides2020_05)

## # A tibble: 200,274 x 13
##    ride_id          rideable_type started_at          ended_at           
##    <chr>            <chr>         <dttm>              <dttm>             
##  1 02668AD35674B983 docked_bike   2020-05-27 10:03:52 2020-05-27 10:16:49
##  2 7A50CCAF1EDDB28F docked_bike   2020-05-25 10:47:11 2020-05-25 11:05:40
##  3 2FFCDFDB91FE9A52 docked_bike   2020-05-02 14:11:03 2020-05-02 15:48:21
##  4 58991CF1DB75BA84 docked_bike   2020-05-02 16:25:36 2020-05-02 16:39:28
##  5 A79651EFECC268CD docked_bike   2020-05-29 12:49:54 2020-05-29 13:27:11
##  6 1466C5B39F68F746 docked_bike   2020-05-29 13:27:24 2020-05-29 14:14:45
##  7 2500D7957D4D0A34 docked_bike   2020-05-20 12:51:41 2020-05-20 13:46:47
##  8 ED42D3E06AFB2F26 docked_bike   2020-05-06 18:21:42 2020-05-06 19:07:07
##  9 23AFBD962F9C8F14 docked_bike   2020-05-30 17:00:58 2020-05-30 17:19:52
## 10 52C0D13F6B81C5F8 docked_bike   2020-05-23 10:22:02 2020-05-23 10:52:02
## # ... with 200,264 more rows, and 9 more variables: start_station_name <chr>,
## #   start_station_id <dbl>, end_station_name <chr>, end_station_id <dbl>,
## #   start_lat <dbl>, start_lng <dbl>, end_lat <dbl>, end_lng <dbl>,
## #   member_casual <chr>

tibble(rides2020_06)

## # A tibble: 343,005 x 13
##    ride_id          rideable_type started_at          ended_at           
##    <chr>            <chr>         <dttm>              <dttm>             
##  1 8CD5DE2C2B6C4CFC docked_bike   2020-06-13 23:24:48 2020-06-13 23:36:55
##  2 9A191EB2C751D85D docked_bike   2020-06-26 07:26:10 2020-06-26 07:31:58
##  3 F37D14B0B5659BCF docked_bike   2020-06-23 17:12:41 2020-06-23 17:21:14
##  4 C41237B506E85FA1 docked_bike   2020-06-20 01:09:35 2020-06-20 01:28:24
##  5 4B51B3B0BDA7787C docked_bike   2020-06-25 16:59:25 2020-06-25 17:08:48
##  6 D50DF288196B53BE docked_bike   2020-06-17 18:07:18 2020-06-17 18:18:14
##  7 165FA6D223E58600 docked_bike   2020-06-25 07:24:33 2020-06-25 07:31:11
##  8 D8236CFC050E591C docked_bike   2020-06-19 00:00:56 2020-06-19 00:09:15
##  9 9D82B9B53C37C55C docked_bike   2020-06-30 12:11:36 2020-06-30 12:32:43
## 10 3DFF4AB10A6895A3 docked_bike   2020-06-28 14:17:09 2020-06-28 14:27:51
## # ... with 342,995 more rows, and 9 more variables: start_station_name <chr>,
## #   start_station_id <dbl>, end_station_name <chr>, end_station_id <dbl>,
## #   start_lat <dbl>, start_lng <dbl>, end_lat <dbl>, end_lng <dbl>,
## #   member_casual <chr>

tibble(rides2020_07)

## # A tibble: 551,480 x 13
##    ride_id          rideable_type started_at          ended_at           
##    <chr>            <chr>         <dttm>              <dttm>             
##  1 762198876D69004D docked_bike   2020-07-09 15:22:02 2020-07-09 15:25:52
##  2 BEC9C9FBA0D4CF1B docked_bike   2020-07-24 23:56:30 2020-07-25 00:20:17
##  3 D2FD8EA432C77EC1 docked_bike   2020-07-08 19:49:07 2020-07-08 19:56:22
##  4 54AE594E20B35881 docked_bike   2020-07-17 19:06:42 2020-07-17 19:27:38
##  5 54025FDC7440B56F docked_bike   2020-07-04 10:39:57 2020-07-04 10:45:05
##  6 65636B619E24257F docked_bike   2020-07-28 16:33:03 2020-07-28 16:49:10
##  7 22DB94283ECFDBD2 docked_bike   2020-07-30 11:58:12 2020-07-30 12:16:12
##  8 C9D789BEF899F4B8 docked_bike   2020-07-13 16:48:03 2020-07-13 16:57:00
##  9 FBE24D943CDE35A1 docked_bike   2020-07-30 11:00:12 2020-07-30 11:14:48
## 10 8A2BBE457325A2E7 docked_bike   2020-07-06 18:05:29 2020-07-06 18:15:38
## # ... with 551,470 more rows, and 9 more variables: start_station_name <chr>,
## #   start_station_id <dbl>, end_station_name <chr>, end_station_id <dbl>,
## #   start_lat <dbl>, start_lng <dbl>, end_lat <dbl>, end_lng <dbl>,
## #   member_casual <chr>

tibble(rides2020_08)

## # A tibble: 622,361 x 13
##    ride_id          rideable_type started_at          ended_at           
##    <chr>            <chr>         <dttm>              <dttm>             
##  1 322BD23D287743ED docked_bike   2020-08-20 18:08:14 2020-08-20 18:17:51
##  2 2A3AEF1AB9054D8B electric_bike 2020-08-27 18:46:04 2020-08-27 19:54:51
##  3 67DC1D133E8B5816 electric_bike 2020-08-26 19:44:14 2020-08-26 21:53:07
##  4 C79FBBD412E578A7 electric_bike 2020-08-27 12:05:41 2020-08-27 12:53:45
##  5 13814D3D661ECADB electric_bike 2020-08-27 16:49:02 2020-08-27 16:59:49
##  6 56349A5A42F0AE51 electric_bike 2020-08-27 17:26:23 2020-08-27 18:07:50
##  7 EB6ABC5570C29B22 electric_bike 2020-08-26 20:14:02 2020-08-26 20:34:00
##  8 B4ECE389A1DE922D electric_bike 2020-08-26 21:59:50 2020-08-26 22:12:35
##  9 0B355B0FE076D010 electric_bike 2020-08-26 19:17:42 2020-08-26 19:32:14
## 10 1ECE04F779E9FDF6 electric_bike 2020-08-27 15:13:57 2020-08-27 15:41:59
## # ... with 622,351 more rows, and 9 more variables: start_station_name <chr>,
## #   start_station_id <dbl>, end_station_name <chr>, end_station_id <dbl>,
## #   start_lat <dbl>, start_lng <dbl>, end_lat <dbl>, end_lng <dbl>,
## #   member_casual <chr>

tibble(rides2020_09)

## # A tibble: 532,958 x 13
##    ride_id          rideable_type started_at          ended_at           
##    <chr>            <chr>         <dttm>              <dttm>             
##  1 2B22BD5F95FB2629 electric_bike 2020-09-17 14:27:11 2020-09-17 14:44:24
##  2 A7FB70B4AFC6CAF2 electric_bike 2020-09-17 15:07:31 2020-09-17 15:07:45
##  3 86057FA01BAC778E electric_bike 2020-09-17 15:09:04 2020-09-17 15:09:35
##  4 57F6DC9A153DB98C electric_bike 2020-09-17 18:10:46 2020-09-17 18:35:49
##  5 B9C4712F78C1AE68 electric_bike 2020-09-17 15:16:13 2020-09-17 15:52:55
##  6 378BBCE1E444EB80 electric_bike 2020-09-17 18:37:04 2020-09-17 19:23:28
##  7 0CB5E2496B6F1DF8 electric_bike 2020-09-16 21:39:57 2020-09-16 21:53:44
##  8 9673F5D39BDBA8BE electric_bike 2020-09-17 12:18:06 2020-09-17 12:18:19
##  9 54B91F5C95B20268 electric_bike 2020-09-17 17:09:17 2020-09-17 17:34:20
## 10 91CEBB66076D4713 electric_bike 2020-09-17 12:20:25 2020-09-17 12:29:47
## # ... with 532,948 more rows, and 9 more variables: start_station_name <chr>,
## #   start_station_id <dbl>, end_station_name <chr>, end_station_id <dbl>,
## #   start_lat <dbl>, start_lng <dbl>, end_lat <dbl>, end_lng <dbl>,
## #   member_casual <chr>

tibble(rides2020_10)

## # A tibble: 388,653 x 13
##    ride_id          rideable_type started_at          ended_at           
##    <chr>            <chr>         <dttm>              <dttm>             
##  1 ACB6B40CF5B9044C electric_bike 2020-10-31 19:39:43 2020-10-31 19:57:12
##  2 DF450C72FD109C01 electric_bike 2020-10-31 23:50:08 2020-11-01 00:04:16
##  3 B6396B54A15AC0DF electric_bike 2020-10-31 23:00:01 2020-10-31 23:08:22
##  4 44A4AEE261B9E854 electric_bike 2020-10-31 22:16:43 2020-10-31 22:19:35
##  5 10B7DD76A6A2EB95 electric_bike 2020-10-31 19:38:19 2020-10-31 19:54:32
##  6 DA6C3759660133DA electric_bike 2020-10-29 17:38:04 2020-10-29 17:45:43
##  7 C2F3808FD56B4F84 electric_bike 2020-10-29 09:03:06 2020-10-29 09:17:56
##  8 15B13B5A508BA2B6 electric_bike 2020-10-29 16:37:21 2020-10-29 16:52:40
##  9 285D224410C101C5 electric_bike 2020-10-28 23:12:03 2020-10-28 23:24:32
## 10 E1FB79FFE6DB0117 electric_bike 2020-10-29 16:38:44 2020-10-29 16:50:17
## # ... with 388,643 more rows, and 9 more variables: start_station_name <chr>,
## #   start_station_id <dbl>, end_station_name <chr>, end_station_id <dbl>,
## #   start_lat <dbl>, start_lng <dbl>, end_lat <dbl>, end_lng <dbl>,
## #   member_casual <chr>

tibble(rides2020_11)

## # A tibble: 259,716 x 13
##    ride_id          rideable_type started_at          ended_at           
##    <chr>            <chr>         <dttm>              <dttm>             
##  1 BD0A6FF6FFF9B921 electric_bike 2020-11-01 13:36:00 2020-11-01 13:45:40
##  2 96A7A7A4BDE4F82D electric_bike 2020-11-01 10:03:26 2020-11-01 10:14:45
##  3 C61526D06582BDC5 electric_bike 2020-11-01 00:34:05 2020-11-01 01:03:06
##  4 E533E89C32080B9E electric_bike 2020-11-01 00:45:16 2020-11-01 00:54:31
##  5 1C9F4EF18C168C60 electric_bike 2020-11-01 15:43:25 2020-11-01 16:16:52
##  6 7259585D8276D338 electric_bike 2020-11-14 15:55:17 2020-11-14 16:44:38
##  7 91FE5C8F8A676594 electric_bike 2020-11-14 16:47:29 2020-11-14 17:03:03
##  8 9E7A79ADA90C2695 electric_bike 2020-11-14 16:04:15 2020-11-14 16:19:33
##  9 A5B02C0D41DBCDAF electric_bike 2020-11-14 16:24:09 2020-11-14 16:51:34
## 10 8234407C29FE41DC electric_bike 2020-11-14 01:24:22 2020-11-14 01:31:42
## # ... with 259,706 more rows, and 9 more variables: start_station_name <chr>,
## #   start_station_id <dbl>, end_station_name <chr>, end_station_id <dbl>,
## #   start_lat <dbl>, start_lng <dbl>, end_lat <dbl>, end_lng <dbl>,
## #   member_casual <chr>

tibble(rides2020_12)

## # A tibble: 131,573 x 13
##    ride_id          rideable_type started_at          ended_at           
##    <chr>            <chr>         <dttm>              <dttm>             
##  1 70B6A9A437D4C30D classic_bike  2020-12-27 12:44:29 2020-12-27 12:55:06
##  2 158A465D4E74C54A electric_bike 2020-12-18 17:37:15 2020-12-18 17:44:19
##  3 5262016E0F1F2F9A electric_bike 2020-12-15 15:04:33 2020-12-15 15:11:28
##  4 BE119628E44F871E electric_bike 2020-12-15 15:54:18 2020-12-15 16:00:11
##  5 69AF78D57854E110 electric_bike 2020-12-22 12:08:17 2020-12-22 12:10:59
##  6 C1DECC4AB488831C electric_bike 2020-12-22 13:26:37 2020-12-22 13:34:50
##  7 B014A60B856C02B1 electric_bike 2020-12-03 16:23:48 2020-12-03 16:33:39
##  8 1E127B1929C0A976 electric_bike 2020-12-03 15:03:38 2020-12-03 15:12:39
##  9 05F41F5137B5048E electric_bike 2020-12-12 09:26:17 2020-12-12 09:26:35
## 10 BB807646588DC5B1 electric_bike 2020-12-18 12:52:06 2020-12-18 12:52:23
## # ... with 131,563 more rows, and 9 more variables: start_station_name <chr>,
## #   start_station_id <chr>, end_station_name <chr>, end_station_id <chr>,
## #   start_lat <dbl>, start_lng <dbl>, end_lat <dbl>, end_lng <dbl>,
## #   member_casual <chr>

tibble(rides2021_01)

## # A tibble: 96,834 x 13
##    ride_id          rideable_type started_at          ended_at           
##    <chr>            <chr>         <dttm>              <dttm>             
##  1 E19E6F1B8D4C42ED electric_bike 2021-01-23 16:14:19 2021-01-23 16:24:44
##  2 DC88F20C2C55F27F electric_bike 2021-01-27 18:43:08 2021-01-27 18:47:12
##  3 EC45C94683FE3F27 electric_bike 2021-01-21 22:35:54 2021-01-21 22:37:14
##  4 4FA453A75AE377DB electric_bike 2021-01-07 13:31:13 2021-01-07 13:42:55
##  5 BE5E8EB4E7263A0B electric_bike 2021-01-23 02:24:02 2021-01-23 02:24:45
##  6 5D8969F88C773979 electric_bike 2021-01-09 14:24:07 2021-01-09 15:17:54
##  7 09275CC10F854E9E electric_bike 2021-01-04 05:05:04 2021-01-04 05:10:39
##  8 DF7A32A217AEFB14 electric_bike 2021-01-14 15:07:00 2021-01-14 15:13:40
##  9 C2EFC62379EB716C electric_bike 2021-01-09 09:57:55 2021-01-09 10:00:26
## 10 B9F73448DFBE0D45 classic_bike  2021-01-24 19:15:38 2021-01-24 19:22:51
## # ... with 96,824 more rows, and 9 more variables: start_station_name <chr>,
## #   start_station_id <chr>, end_station_name <chr>, end_station_id <chr>,
## #   start_lat <dbl>, start_lng <dbl>, end_lat <dbl>, end_lng <dbl>,
## #   member_casual <chr>

tibble(rides2021_02)

## # A tibble: 49,622 x 13
##    ride_id          rideable_type started_at          ended_at           
##    <chr>            <chr>         <dttm>              <dttm>             
##  1 89E7AA6C29227EFF classic_bike  2021-02-12 16:14:56 2021-02-12 16:21:43
##  2 0FEFDE2603568365 classic_bike  2021-02-14 17:52:38 2021-02-14 18:12:09
##  3 E6159D746B2DBB91 electric_bike 2021-02-09 19:10:18 2021-02-09 19:19:10
##  4 B32D3199F1C2E75B classic_bike  2021-02-02 17:49:41 2021-02-02 17:54:06
##  5 83E463F23575F4BF electric_bike 2021-02-23 15:07:23 2021-02-23 15:22:37
##  6 BDAA7E3494E8D545 electric_bike 2021-02-24 15:43:33 2021-02-24 15:49:05
##  7 A772742351171257 classic_bike  2021-02-01 17:47:42 2021-02-01 17:48:33
##  8 295476889D9B79F8 classic_bike  2021-02-11 18:33:53 2021-02-11 18:35:09
##  9 362087194BA4CC9A classic_bike  2021-02-27 15:13:39 2021-02-27 15:36:36
## 10 21630F715038CCB0 classic_bike  2021-02-20 08:59:42 2021-02-20 09:17:04
## # ... with 49,612 more rows, and 9 more variables: start_station_name <chr>,
## #   start_station_id <chr>, end_station_name <chr>, end_station_id <chr>,
## #   start_lat <dbl>, start_lng <dbl>, end_lat <dbl>, end_lng <dbl>,
## #   member_casual <chr>

tibble(rides2021_03)

## # A tibble: 228,496 x 13
##    ride_id          rideable_type started_at          ended_at           
##    <chr>            <chr>         <dttm>              <dttm>             
##  1 CFA86D4455AA1030 classic_bike  2021-03-16 08:32:30 2021-03-16 08:36:34
##  2 30D9DC61227D1AF3 classic_bike  2021-03-28 01:26:28 2021-03-28 01:36:55
##  3 846D87A15682A284 classic_bike  2021-03-11 21:17:29 2021-03-11 21:33:53
##  4 994D05AA75A168F2 classic_bike  2021-03-11 13:26:42 2021-03-11 13:55:41
##  5 DF7464FBE92D8308 classic_bike  2021-03-21 09:09:37 2021-03-21 09:27:33
##  6 CEBA8516FD17F8D8 classic_bike  2021-03-20 11:08:47 2021-03-20 11:29:39
##  7 297268586B79588B classic_bike  2021-03-20 14:10:41 2021-03-20 14:22:13
##  8 F39301858B6077DD electric_bike 2021-03-23 07:56:51 2021-03-23 08:05:50
##  9 D297F199D875BABE electric_bike 2021-03-31 15:31:19 2021-03-31 15:35:58
## 10 36B877141175ED7E classic_bike  2021-03-11 17:37:37 2021-03-11 17:52:44
## # ... with 228,486 more rows, and 9 more variables: start_station_name <chr>,
## #   start_station_id <chr>, end_station_name <chr>, end_station_id <chr>,
## #   start_lat <dbl>, start_lng <dbl>, end_lat <dbl>, end_lng <dbl>,
## #   member_casual <chr>
…
